%YAML 1.1
%TAG !u! tag:unity3d.com,2011:
--- !u!78 &1
TagManager:
  serializedVersion: 2
  tags:
  - SFXAudioSource
  layers:
  - Default
  - TransparentFX
  - Ignore Raycast
  - 
  - Water
  - UI
  - Unit
  - Enemy
  - PlayerBullet
  - EnemyBullet
  - PlayerDetectionLayer
  - EnemyDetectionLayer
  - Mine
  - SFXAudioSource
  - 
  - 
  - 
  - 
  - 
  - 
  - 
  - 
  - 
  - 
  - 
  - 
  - 
  - 
  - 
  - 
  - 
  - 
  m_SortingLayers:
  - name: Default
    uniqueID: 0
    locked: 0
  - name: Background
    uniqueID: 4013586473
    locked: 0
  - name: Entities
    uniqueID: 1665057959
    locked: 0
