%YAML 1.1
%TAG !u! tag:unity3d.com,2011:
--- !u!1001 &2442392911569444008
PrefabInstance:
  m_ObjectHideFlags: 0
  serializedVersion: 2
  m_Modification:
    m_TransformParent: {fileID: 0}
    m_Modifications:
    - target: {fileID: 649377118, guid: ed353b1926e268748b16cef7189bbe89, type: 3}
      propertyPath: m_Points.m_Paths.Array.data[0].Array.size
      value: 6
      objectReference: {fileID: 0}
    - target: {fileID: 649377118, guid: ed353b1926e268748b16cef7189bbe89, type: 3}
      propertyPath: m_Points.m_Paths.Array.data[0].Array.data[0].x
      value: -0.16
      objectReference: {fileID: 0}
    - target: {fileID: 649377118, guid: ed353b1926e268748b16cef7189bbe89, type: 3}
      propertyPath: m_Points.m_Paths.Array.data[0].Array.data[0].y
      value: 0.12
      objectReference: {fileID: 0}
    - target: {fileID: 649377118, guid: ed353b1926e268748b16cef7189bbe89, type: 3}
      propertyPath: m_Points.m_Paths.Array.data[0].Array.data[1].x
      value: -0.16
      objectReference: {fileID: 0}
    - target: {fileID: 649377118, guid: ed353b1926e268748b16cef7189bbe89, type: 3}
      propertyPath: m_Points.m_Paths.Array.data[0].Array.data[1].y
      value: -0.049999997
      objectReference: {fileID: 0}
    - target: {fileID: 649377118, guid: ed353b1926e268748b16cef7189bbe89, type: 3}
      propertyPath: m_Points.m_Paths.Array.data[0].Array.data[2].x
      value: -0.14
      objectReference: {fileID: 0}
    - target: {fileID: 649377118, guid: ed353b1926e268748b16cef7189bbe89, type: 3}
      propertyPath: m_Points.m_Paths.Array.data[0].Array.data[2].y
      value: -0.11
      objectReference: {fileID: 0}
    - target: {fileID: 649377118, guid: ed353b1926e268748b16cef7189bbe89, type: 3}
      propertyPath: m_Points.m_Paths.Array.data[0].Array.data[3].x
      value: 0.16
      objectReference: {fileID: 0}
    - target: {fileID: 649377118, guid: ed353b1926e268748b16cef7189bbe89, type: 3}
      propertyPath: m_Points.m_Paths.Array.data[0].Array.data[3].y
      value: -0.11
      objectReference: {fileID: 0}
    - target: {fileID: 649377118, guid: ed353b1926e268748b16cef7189bbe89, type: 3}
      propertyPath: m_Points.m_Paths.Array.data[0].Array.data[4].x
      value: 0.16
      objectReference: {fileID: 0}
    - target: {fileID: 649377118, guid: ed353b1926e268748b16cef7189bbe89, type: 3}
      propertyPath: m_Points.m_Paths.Array.data[0].Array.data[4].y
      value: 0.11
      objectReference: {fileID: 0}
    - target: {fileID: 649377118, guid: ed353b1926e268748b16cef7189bbe89, type: 3}
      propertyPath: m_Points.m_Paths.Array.data[0].Array.data[5].x
      value: 0.12
      objectReference: {fileID: 0}
    - target: {fileID: 649377118, guid: ed353b1926e268748b16cef7189bbe89, type: 3}
      propertyPath: m_Points.m_Paths.Array.data[0].Array.data[5].y
      value: 0.12
      objectReference: {fileID: 0}
    - target: {fileID: 2835506128223677356, guid: ed353b1926e268748b16cef7189bbe89, type: 3}
      propertyPath: m_Speed
      value: 0.3
      objectReference: {fileID: 0}
    - target: {fileID: 4521917001661084911, guid: ed353b1926e268748b16cef7189bbe89, type: 3}
      propertyPath: m_audioClip
      value: 
      objectReference: {fileID: 8300000, guid: 3af110f280cb97741a08ffcbaca5bfa0, type: 3}
    - target: {fileID: 6572308350443325048, guid: ed353b1926e268748b16cef7189bbe89, type: 3}
      propertyPath: m_Name
      value: Armored
      objectReference: {fileID: 0}
    - target: {fileID: 6572308350443325053, guid: ed353b1926e268748b16cef7189bbe89, type: 3}
      propertyPath: armor
      value: 4
      objectReference: {fileID: 0}
    - target: {fileID: 6572308350443325053, guid: ed353b1926e268748b16cef7189bbe89, type: 3}
      propertyPath: damage
      value: 30
      objectReference: {fileID: 0}
    - target: {fileID: 6572308350443325053, guid: ed353b1926e268748b16cef7189bbe89, type: 3}
      propertyPath: health
      value: 150
      objectReference: {fileID: 0}
    - target: {fileID: 6572308350443325053, guid: ed353b1926e268748b16cef7189bbe89, type: 3}
      propertyPath: Credits
      value: 300
      objectReference: {fileID: 0}
    - target: {fileID: 6572308350443325053, guid: ed353b1926e268748b16cef7189bbe89, type: 3}
      propertyPath: bulletSpeed
      value: 1.33
      objectReference: {fileID: 0}
    - target: {fileID: 6572308350443325053, guid: ed353b1926e268748b16cef7189bbe89, type: 3}
      propertyPath: shootFrequency
      value: 1.65
      objectReference: {fileID: 0}
    - target: {fileID: 6572308350443325054, guid: ed353b1926e268748b16cef7189bbe89, type: 3}
      propertyPath: m_RootOrder
      value: 0
      objectReference: {fileID: 0}
    - target: {fileID: 6572308350443325054, guid: ed353b1926e268748b16cef7189bbe89, type: 3}
      propertyPath: m_LocalPosition.x
      value: 1
      objectReference: {fileID: 0}
    - target: {fileID: 6572308350443325054, guid: ed353b1926e268748b16cef7189bbe89, type: 3}
      propertyPath: m_LocalPosition.y
      value: 0
      objectReference: {fileID: 0}
    - target: {fileID: 6572308350443325054, guid: ed353b1926e268748b16cef7189bbe89, type: 3}
      propertyPath: m_LocalPosition.z
      value: 0
      objectReference: {fileID: 0}
    - target: {fileID: 6572308350443325054, guid: ed353b1926e268748b16cef7189bbe89, type: 3}
      propertyPath: m_LocalRotation.w
      value: 1
      objectReference: {fileID: 0}
    - target: {fileID: 6572308350443325054, guid: ed353b1926e268748b16cef7189bbe89, type: 3}
      propertyPath: m_LocalRotation.x
      value: 0
      objectReference: {fileID: 0}
    - target: {fileID: 6572308350443325054, guid: ed353b1926e268748b16cef7189bbe89, type: 3}
      propertyPath: m_LocalRotation.y
      value: 0
      objectReference: {fileID: 0}
    - target: {fileID: 6572308350443325054, guid: ed353b1926e268748b16cef7189bbe89, type: 3}
      propertyPath: m_LocalRotation.z
      value: 0
      objectReference: {fileID: 0}
    - target: {fileID: 6572308350443325054, guid: ed353b1926e268748b16cef7189bbe89, type: 3}
      propertyPath: m_LocalEulerAnglesHint.x
      value: 0
      objectReference: {fileID: 0}
    - target: {fileID: 6572308350443325054, guid: ed353b1926e268748b16cef7189bbe89, type: 3}
      propertyPath: m_LocalEulerAnglesHint.y
      value: 0
      objectReference: {fileID: 0}
    - target: {fileID: 6572308350443325054, guid: ed353b1926e268748b16cef7189bbe89, type: 3}
      propertyPath: m_LocalEulerAnglesHint.z
      value: 0
      objectReference: {fileID: 0}
    - target: {fileID: 6572308350443325055, guid: ed353b1926e268748b16cef7189bbe89, type: 3}
      propertyPath: m_Sprite
      value: 
      objectReference: {fileID: 21300000, guid: 53e4547f8d5e0ba4e8791d791356f942, type: 3}
    m_RemovedComponents: []
  m_SourcePrefab: {fileID: 100100000, guid: ed353b1926e268748b16cef7189bbe89, type: 3}
