%YAML 1.1
%TAG !u! tag:unity3d.com,2011:
--- !u!1001 &2093810089750219304
PrefabInstance:
  m_ObjectHideFlags: 0
  serializedVersion: 2
  m_Modification:
    m_TransformParent: {fileID: 0}
    m_Modifications:
    - target: {fileID: 649377118, guid: ed353b1926e268748b16cef7189bbe89, type: 3}
      propertyPath: m_Points.m_Paths.Array.data[0].Array.size
      value: 8
      objectReference: {fileID: 0}
    - target: {fileID: 649377118, guid: ed353b1926e268748b16cef7189bbe89, type: 3}
      propertyPath: m_Points.m_Paths.Array.data[0].Array.data[0].x
      value: -0.14
      objectReference: {fileID: 0}
    - target: {fileID: 649377118, guid: ed353b1926e268748b16cef7189bbe89, type: 3}
      propertyPath: m_Points.m_Paths.Array.data[0].Array.data[0].y
      value: 0.12
      objectReference: {fileID: 0}
    - target: {fileID: 649377118, guid: ed353b1926e268748b16cef7189bbe89, type: 3}
      propertyPath: m_Points.m_Paths.Array.data[0].Array.data[1].x
      value: -0.16
      objectReference: {fileID: 0}
    - target: {fileID: 649377118, guid: ed353b1926e268748b16cef7189bbe89, type: 3}
      propertyPath: m_Points.m_Paths.Array.data[0].Array.data[1].y
      value: 0.07
      objectReference: {fileID: 0}
    - target: {fileID: 649377118, guid: ed353b1926e268748b16cef7189bbe89, type: 3}
      propertyPath: m_Points.m_Paths.Array.data[0].Array.data[2].x
      value: -0.16
      objectReference: {fileID: 0}
    - target: {fileID: 649377118, guid: ed353b1926e268748b16cef7189bbe89, type: 3}
      propertyPath: m_Points.m_Paths.Array.data[0].Array.data[2].y
      value: -0.08
      objectReference: {fileID: 0}
    - target: {fileID: 649377118, guid: ed353b1926e268748b16cef7189bbe89, type: 3}
      propertyPath: m_Points.m_Paths.Array.data[0].Array.data[3].x
      value: -0.13
      objectReference: {fileID: 0}
    - target: {fileID: 649377118, guid: ed353b1926e268748b16cef7189bbe89, type: 3}
      propertyPath: m_Points.m_Paths.Array.data[0].Array.data[3].y
      value: -0.11
      objectReference: {fileID: 0}
    - target: {fileID: 649377118, guid: ed353b1926e268748b16cef7189bbe89, type: 3}
      propertyPath: m_Points.m_Paths.Array.data[0].Array.data[4].x
      value: 0.13
      objectReference: {fileID: 0}
    - target: {fileID: 649377118, guid: ed353b1926e268748b16cef7189bbe89, type: 3}
      propertyPath: m_Points.m_Paths.Array.data[0].Array.data[4].y
      value: -0.11
      objectReference: {fileID: 0}
    - target: {fileID: 649377118, guid: ed353b1926e268748b16cef7189bbe89, type: 3}
      propertyPath: m_Points.m_Paths.Array.data[0].Array.data[5].x
      value: 0.14999999
      objectReference: {fileID: 0}
    - target: {fileID: 649377118, guid: ed353b1926e268748b16cef7189bbe89, type: 3}
      propertyPath: m_Points.m_Paths.Array.data[0].Array.data[5].y
      value: -0.08
      objectReference: {fileID: 0}
    - target: {fileID: 649377118, guid: ed353b1926e268748b16cef7189bbe89, type: 3}
      propertyPath: m_Points.m_Paths.Array.data[0].Array.data[6].x
      value: 0.14999999
      objectReference: {fileID: 0}
    - target: {fileID: 649377118, guid: ed353b1926e268748b16cef7189bbe89, type: 3}
      propertyPath: m_Points.m_Paths.Array.data[0].Array.data[6].y
      value: 0.06
      objectReference: {fileID: 0}
    - target: {fileID: 649377118, guid: ed353b1926e268748b16cef7189bbe89, type: 3}
      propertyPath: m_Points.m_Paths.Array.data[0].Array.data[7].x
      value: 0.13
      objectReference: {fileID: 0}
    - target: {fileID: 649377118, guid: ed353b1926e268748b16cef7189bbe89, type: 3}
      propertyPath: m_Points.m_Paths.Array.data[0].Array.data[7].y
      value: 0.12
      objectReference: {fileID: 0}
    - target: {fileID: 6572308350443325048, guid: ed353b1926e268748b16cef7189bbe89, type: 3}
      propertyPath: m_Name
      value: Standard
      objectReference: {fileID: 0}
    - target: {fileID: 6572308350443325054, guid: ed353b1926e268748b16cef7189bbe89, type: 3}
      propertyPath: m_RootOrder
      value: 0
      objectReference: {fileID: 0}
    - target: {fileID: 6572308350443325054, guid: ed353b1926e268748b16cef7189bbe89, type: 3}
      propertyPath: m_LocalPosition.x
      value: 1
      objectReference: {fileID: 0}
    - target: {fileID: 6572308350443325054, guid: ed353b1926e268748b16cef7189bbe89, type: 3}
      propertyPath: m_LocalPosition.y
      value: 0
      objectReference: {fileID: 0}
    - target: {fileID: 6572308350443325054, guid: ed353b1926e268748b16cef7189bbe89, type: 3}
      propertyPath: m_LocalPosition.z
      value: 0
      objectReference: {fileID: 0}
    - target: {fileID: 6572308350443325054, guid: ed353b1926e268748b16cef7189bbe89, type: 3}
      propertyPath: m_LocalRotation.w
      value: 1
      objectReference: {fileID: 0}
    - target: {fileID: 6572308350443325054, guid: ed353b1926e268748b16cef7189bbe89, type: 3}
      propertyPath: m_LocalRotation.x
      value: 0
      objectReference: {fileID: 0}
    - target: {fileID: 6572308350443325054, guid: ed353b1926e268748b16cef7189bbe89, type: 3}
      propertyPath: m_LocalRotation.y
      value: 0
      objectReference: {fileID: 0}
    - target: {fileID: 6572308350443325054, guid: ed353b1926e268748b16cef7189bbe89, type: 3}
      propertyPath: m_LocalRotation.z
      value: 0
      objectReference: {fileID: 0}
    - target: {fileID: 6572308350443325054, guid: ed353b1926e268748b16cef7189bbe89, type: 3}
      propertyPath: m_LocalEulerAnglesHint.x
      value: 0
      objectReference: {fileID: 0}
    - target: {fileID: 6572308350443325054, guid: ed353b1926e268748b16cef7189bbe89, type: 3}
      propertyPath: m_LocalEulerAnglesHint.y
      value: 0
      objectReference: {fileID: 0}
    - target: {fileID: 6572308350443325054, guid: ed353b1926e268748b16cef7189bbe89, type: 3}
      propertyPath: m_LocalEulerAnglesHint.z
      value: 0
      objectReference: {fileID: 0}
    - target: {fileID: 6572308350443325055, guid: ed353b1926e268748b16cef7189bbe89, type: 3}
      propertyPath: m_Sprite
      value: 
      objectReference: {fileID: 21300000, guid: 755eef3affe12f04ba2782a023ffcbd0, type: 3}
    m_RemovedComponents: []
  m_SourcePrefab: {fileID: 100100000, guid: ed353b1926e268748b16cef7189bbe89, type: 3}
